<?xml version="1.0" encoding="utf-8"?>
<!-- Generator: Adobe Illustrator 15.0.0, SVG Export Plug-In  -->
<!DOCTYPE svg PUBLIC "-//W3C//DTD SVG 1.1//EN" "http://www.w3.org/Graphics/SVG/1.1/DTD/svg11.dtd" [
	<!ENTITY ns_flows "http://ns.adobe.com/Flows/1.0/">
]>
<svg version="1.1"
	 xmlns="http://www.w3.org/2000/svg" xmlns:xlink="http://www.w3.org/1999/xlink" xmlns:a="http://ns.adobe.com/AdobeSVGViewerExtensions/3.0/"
	 x="0px" y="0px" width="551px" height="445px" viewBox="0 0 551 445" enable-background="new 0 0 551 445" xml:space="preserve">
<defs>
</defs>
<path fill="#FFFFFF" d="M550.8,222.309L333.54,5.049c-6.732-6.732-17.136-6.732-23.868,0c-6.731,6.732-6.731,17.748,0,24.48
	l177.48,178.092H17.136c-9.18,0-17.136,6.12-17.136,15.301c0,9.18,7.956,15.299,17.136,15.299h467.568L309.06,415.088
	c-6.731,6.732-6.731,17.748,0,24.48c3.061,3.06,7.956,5.508,12.24,5.508s8.568-1.224,12.24-4.896L550.8,222.309z"/>
</svg>
