<?xml version="1.0" encoding="utf-8"?>
<!-- Generator: Adobe Illustrator 15.0.0, SVG Export Plug-In  -->
<!DOCTYPE svg PUBLIC "-//W3C//DTD SVG 1.1//EN" "http://www.w3.org/Graphics/SVG/1.1/DTD/svg11.dtd" [
	<!ENTITY ns_flows "http://ns.adobe.com/Flows/1.0/">
]>
<svg version="1.1"
	 xmlns="http://www.w3.org/2000/svg" xmlns:xlink="http://www.w3.org/1999/xlink" xmlns:a="http://ns.adobe.com/AdobeSVGViewerExtensions/3.0/"
	 x="0px" y="0px" width="30px" height="64px" viewBox="0 0 30 64" enable-background="new 0 0 30 64" xml:space="preserve">
<defs>
</defs>
<path fill-rule="evenodd" clip-rule="evenodd" fill="#FFFFFF" d="M29.959,0.019v10.303c0,0-7.595-0.757-9.496,2.154
	c-1.04,1.59-0.423,6.248-0.515,9.593h10.072c-0.851,3.91-1.461,6.563-2.087,9.947h-8.042v32.009H5.938
	c0.003-9.868-0.002-21.38,0-31.884H0V22.068h5.872c0.301-7.364,0.415-14.66,4.072-18.375C14.056-0.482,17.977,0.019,29.959,0.019"/>
</svg>
